# Product Requirements Document: API Integration Module

## 1. Overview

The API Integration Module provides a comprehensive RESTful API for third-party integrations, enabling external systems to interact with the application's core functionality. This module includes authentication, rate limiting, webhook support, comprehensive documentation, and versioning to ensure secure, scalable, and maintainable API integrations.

## 2. Business Objectives

- Enable third-party integrations with secure, well-documented API
- Support partner integrations and marketplace connections
- Provide webhook capabilities for real-time event notifications
- Ensure API scalability to handle high-volume requests
- Maintain backward compatibility through API versioning
- Facilitate developer onboarding with comprehensive documentation

## 3. Functional Requirements

### 3.1 API Authentication

**FR-001:** API Key Authentication:
- Each API client must have unique API key and secret
- API keys are generated in admin portal
- API keys have expiration dates (default: 1 year, configurable)
- API keys can be revoked at any time
- API requests must include API key in header: `X-API-Key: {api_key}`
- API requests must include signature in header: `X-API-Signature: {signature}`
- Signature is HMAC-SHA256 hash of request body + timestamp

**FR-002:** OAuth 2.0 Authentication:
- Support OAuth 2.0 client credentials flow
- Clients register to obtain client_id and client_secret
- Token endpoint: `POST /api/oauth/token`
- Access tokens expire after 1 hour
- Refresh tokens expire after 30 days
- Token endpoint returns: `{ "access_token": "...", "token_type": "Bearer", "expires_in": 3600, "refresh_token": "..." }`

**FR-003:** JWT Token Authentication:
- Support JWT tokens for stateless authentication
- Tokens signed with RS256 algorithm
- Token payload includes: user_id, permissions, expiration
- Tokens included in Authorization header: `Authorization: Bearer {token}`
- Token validation on every request

**FR-004:** API Key Management:
- Admin can create, view, update, and revoke API keys
- API keys display: key name, created date, last used date, expiration date, status (active/revoked)
- API keys can be regenerated (old key is immediately revoked)
- API key usage statistics (requests per day, errors, etc.)

### 3.2 API Endpoints

**FR-005:** Orders API:
- `GET /api/v1/orders` - List orders (with pagination, filtering, sorting)
- `GET /api/v1/orders/{orderId}` - Get order details
- `POST /api/v1/orders` - Create new order
- `PUT /api/v1/orders/{orderId}` - Update order
- `PATCH /api/v1/orders/{orderId}/status` - Update order status
- `DELETE /api/v1/orders/{orderId}` - Cancel order (soft delete)

**FR-006:** Products API:
- `GET /api/v1/products` - List products (with pagination, search, filtering)
- `GET /api/v1/products/{productId}` - Get product details
- `POST /api/v1/products` - Create new product
- `PUT /api/v1/products/{productId}` - Update product
- `DELETE /api/v1/products/{productId}` - Delete product

**FR-007:** Customers API:
- `GET /api/v1/customers` - List customers (with pagination, search)
- `GET /api/v1/customers/{customerId}` - Get customer details
- `POST /api/v1/customers` - Create new customer
- `PUT /api/v1/customers/{customerId}` - Update customer
- `DELETE /api/v1/customers/{customerId}` - Delete customer (GDPR compliant)

**FR-008:** Inventory API:
- `GET /api/v1/inventory` - List inventory items
- `GET /api/v1/inventory/{sku}` - Get inventory item by SKU
- `POST /api/v1/inventory` - Add inventory item
- `PUT /api/v1/inventory/{sku}` - Update inventory quantity
- `PATCH /api/v1/inventory/{sku}/reserve` - Reserve inventory
- `PATCH /api/v1/inventory/{sku}/release` - Release reserved inventory

**FR-009:** Webhooks API:
- `GET /api/v1/webhooks` - List registered webhooks
- `POST /api/v1/webhooks` - Register new webhook
- `PUT /api/v1/webhooks/{webhookId}` - Update webhook
- `DELETE /api/v1/webhooks/{webhookId}` - Delete webhook
- `POST /api/v1/webhooks/{webhookId}/test` - Test webhook delivery

### 3.3 Request/Response Format

**FR-010:** Request Format:
- All requests use JSON content type: `Content-Type: application/json`
- Request body must be valid JSON
- Query parameters for filtering, pagination, sorting
- Headers: `X-API-Key`, `X-API-Signature`, `Content-Type`, `Accept`

**FR-011:** Response Format:
- Success responses: HTTP 200 (OK), 201 (Created), 204 (No Content)
- Error responses: HTTP 400 (Bad Request), 401 (Unauthorized), 403 (Forbidden), 404 (Not Found), 429 (Too Many Requests), 500 (Internal Server Error)
- Standard error format: `{ "error": { "code": "ERROR_CODE", "message": "Human-readable message", "details": {...} } }`
- Pagination format: `{ "data": [...], "pagination": { "page": 1, "perPage": 20, "total": 100, "totalPages": 5 } }`

**FR-012:** Pagination:
- Default page size: 20 items
- Maximum page size: 100 items
- Query parameters: `?page=1&perPage=20`
- Response includes pagination metadata

**FR-013:** Filtering:
- Query parameters for filtering: `?status=active&category=electronics`
- Support for multiple values: `?status=active,pending`
- Support for range queries: `?priceMin=10&priceMax=100`
- Support for date ranges: `?createdAfter=2024-01-01&createdBefore=2024-12-31`

**FR-014:** Sorting:
- Query parameter: `?sort=createdAt&order=desc`
- Support multiple sort fields: `?sort=name,price&order=asc,desc`
- Default sort: `createdAt` descending

**FR-015:** Field Selection:
- Allow clients to specify which fields to return: `?fields=id,name,price`
- Reduces response payload size
- Improves API performance

### 3.4 Rate Limiting

**FR-016:** Rate Limit Rules:
- Default rate limit: 1000 requests per hour per API key
- Burst limit: 100 requests per minute
- Different limits for different API tiers (Free, Pro, Enterprise)
- Rate limit headers in response: `X-RateLimit-Limit`, `X-RateLimit-Remaining`, `X-RateLimit-Reset`

**FR-017:** Rate Limit Enforcement:
- When limit exceeded, return HTTP 429 (Too Many Requests)
- Error response: `{ "error": { "code": "RATE_LIMIT_EXCEEDED", "message": "Rate limit exceeded", "retryAfter": 3600 } }`
- Include `Retry-After` header with seconds until reset
- Log rate limit violations for monitoring

**FR-018:** Rate Limit Tiers:
- Free tier: 100 requests/hour
- Pro tier: 1000 requests/hour
- Enterprise tier: 10000 requests/hour (custom limits available)
- Tier limits are configurable per API key

### 3.5 Webhooks

**FR-019:** Webhook Events:
- Order created: `order.created`
- Order updated: `order.updated`
- Order cancelled: `order.cancelled`
- Payment received: `payment.received`
- Payment failed: `payment.failed`
- Inventory low: `inventory.low`
- Customer created: `customer.created`

**FR-020:** Webhook Delivery:
- Webhooks are delivered via HTTP POST to registered URL
- Request body contains event data: `{ "event": "order.created", "data": {...}, "timestamp": "2024-01-01T00:00:00Z" }`
- Include signature header: `X-Webhook-Signature` (HMAC-SHA256)
- Retry failed deliveries (3 retries with exponential backoff: 1min, 5min, 30min)
- Log all webhook deliveries (success and failure)

**FR-021:** Webhook Security:
- Verify webhook signature on client side
- Support for webhook secret (shared secret for signature verification)
- HTTPS required for webhook URLs
- Validate webhook URL before registration (send test webhook)

**FR-022:** Webhook Management:
- Clients can register multiple webhooks for same event
- Clients can update webhook URL, events, or status
- Clients can pause webhooks (temporarily disable)
- Webhook delivery logs available in admin portal

### 3.6 API Versioning

**FR-023:** Version Strategy:
- URL-based versioning: `/api/v1/`, `/api/v2/`
- Current version: v1
- Support multiple versions simultaneously
- Deprecation policy: minimum 6 months notice before version removal
- Version header: `X-API-Version: 1`

**FR-024:** Version Migration:
- Provide migration guide for version upgrades
- Maintain backward compatibility within major version
- Breaking changes require new major version
- Deprecation warnings in API responses for deprecated endpoints

### 3.7 Error Handling

**FR-025:** Error Codes:
- `VALIDATION_ERROR` - Request validation failed
- `AUTHENTICATION_ERROR` - Invalid or missing authentication
- `AUTHORIZATION_ERROR` - Insufficient permissions
- `NOT_FOUND` - Resource not found
- `RATE_LIMIT_EXCEEDED` - Rate limit exceeded
- `INTERNAL_ERROR` - Server error
- `SERVICE_UNAVAILABLE` - Service temporarily unavailable

**FR-026:** Error Response Format:
- Standard format: `{ "error": { "code": "ERROR_CODE", "message": "Error message", "details": { "field": "error description" } } }`
- Include request ID in error response: `X-Request-Id: {uuid}`
- Include timestamp in error response
- Include documentation link for error resolution

### 3.8 API Documentation

**FR-027:** API Documentation:
- Interactive API documentation (Swagger/OpenAPI)
- Endpoint descriptions with request/response examples
- Authentication guide
- Rate limiting guide
- Webhook setup guide
- Code samples in multiple languages (JavaScript, Python, PHP, Ruby)
- Postman collection for testing

**FR-028:** Developer Portal:
- Self-service API key registration
- API usage dashboard (requests, errors, rate limits)
- Webhook management interface
- Documentation and guides
- Support contact form
- Changelog and release notes

## 4. Non-Functional Requirements

### 4.1 Performance

**NFR-001:** API Response Time:
- Average response time: < 200ms (95th percentile)
- Maximum response time: < 1 second (99th percentile)
- Database query time: < 100ms
- Support 10,000+ requests per second

**NFR-002:** Availability:
- API uptime: 99.9% (8.76 hours downtime per year)
- Graceful degradation during high load
- Health check endpoint: `GET /api/health`

### 4.2 Security

**NFR-003:** Security Standards:
- HTTPS only (TLS 1.2+)
- Input validation and sanitization
- SQL injection prevention (parameterized queries)
- XSS prevention
- CORS configuration
- IP whitelisting (optional, for Enterprise tier)

**NFR-004:** Data Protection:
- Encrypt sensitive data in transit and at rest
- GDPR compliance (data deletion, export)
- Audit logging for all API requests
- PII (Personally Identifiable Information) masking in logs

### 4.3 Scalability

**NFR-005:** Scalability:
- Horizontal scaling support
- Load balancing across multiple servers
- Database connection pooling
- Caching for frequently accessed data (Redis)
- Async processing for heavy operations

## 5. User Flows

### 5.1 API Key Registration

1. Developer navigates to developer portal
2. Developer creates account or logs in
3. Developer clicks "Create API Key"
4. Developer enters API key name and selects tier
5. System generates API key and secret
6. System displays API key (shown only once)
7. Developer copies and saves API key
8. Developer can view API key details in dashboard

### 5.2 Making API Request

1. Developer constructs API request with endpoint, headers, and body
2. Developer includes API key in header: `X-API-Key: {key}`
3. Developer generates signature (HMAC-SHA256 of body + timestamp)
4. Developer includes signature in header: `X-API-Signature: {signature}`
5. Developer sends HTTP request to API
6. API validates authentication
7. API processes request
8. API returns response with data or error

### 5.3 Webhook Registration

1. Developer navigates to webhooks section in developer portal
2. Developer clicks "Register Webhook"
3. Developer enters webhook URL (must be HTTPS)
4. Developer selects events to subscribe to
5. Developer enters webhook secret (optional, for signature verification)
6. System sends test webhook to verify URL
7. Developer confirms webhook is received
8. System activates webhook
9. System sends webhook events to registered URL

## 6. Technical Specifications

### 6.1 API Endpoints Summary

**Base URL:** `https://api.example.com/api/v1`

**Authentication:**
- `POST /oauth/token` - Get OAuth access token
- `POST /oauth/refresh` - Refresh access token

**Orders:**
- `GET /orders` - List orders
- `GET /orders/{id}` - Get order
- `POST /orders` - Create order
- `PUT /orders/{id}` - Update order
- `DELETE /orders/{id}` - Cancel order

**Products:**
- `GET /products` - List products
- `GET /products/{id}` - Get product
- `POST /products` - Create product
- `PUT /products/{id}` - Update product
- `DELETE /products/{id}` - Delete product

**Webhooks:**
- `GET /webhooks` - List webhooks
- `POST /webhooks` - Register webhook
- `PUT /webhooks/{id}` - Update webhook
- `DELETE /webhooks/{id}` - Delete webhook

### 6.2 Request Example

```http
POST /api/v1/orders HTTP/1.1
Host: api.example.com
Content-Type: application/json
X-API-Key: ak_live_1234567890abcdef
X-API-Signature: sha256=abc123...
X-Timestamp: 1640995200

{
  "customerId": "cust_123",
  "items": [
    {
      "productId": "prod_456",
      "quantity": 2,
      "price": 29.99
    }
  ],
  "shippingAddress": {
    "street": "123 Main St",
    "city": "New York",
    "state": "NY",
    "zip": "10001"
  }
}
```

### 6.3 Response Example

```json
{
  "data": {
    "id": "order_789",
    "customerId": "cust_123",
    "status": "pending",
    "total": 59.98,
    "createdAt": "2024-01-01T00:00:00Z"
  },
  "meta": {
    "requestId": "req_abc123"
  }
}
```

## 7. Acceptance Criteria

1. ✅ API authentication works (API key, OAuth, JWT)
2. ✅ All endpoints return correct responses
3. ✅ Rate limiting is enforced correctly
4. ✅ Webhooks are delivered successfully
5. ✅ Error handling returns proper error codes and messages
6. ✅ API documentation is comprehensive and accurate
7. ✅ Pagination, filtering, and sorting work correctly
8. ✅ API response time meets performance requirements
9. ✅ API versioning works correctly
10. ✅ Security requirements are implemented
11. ✅ Developer portal is functional
12. ✅ All API endpoints are tested and working

## 8. Dependencies

- API gateway (Kong or AWS API Gateway)
- Authentication service (JWT, OAuth)
- Database (PostgreSQL)
- Redis (rate limiting, caching)
- Message queue (webhook delivery)
- Monitoring and logging (Datadog, New Relic)

## 9. Out of Scope

- GraphQL API (future enhancement)
- gRPC API (future enhancement)
- WebSocket API (future enhancement)
- API analytics dashboard (separate module)
- API marketplace (future enhancement)

## 10. Testing Requirements

- Unit tests for all API endpoints
- Integration tests for authentication and authorization
- Load testing (10,000+ requests per second)
- Security testing (penetration testing, OWASP Top 10)
- Webhook delivery testing
- API documentation accuracy testing

